…
### Minimal examples

Download Voltaire’s philosophical full novel *Candide* with
`wikisource_book`.

``` r
library(wikisourcer)

wikisource_book(url = "https://en.wikisource.org/wiki/Candide")
```

    ## # A tibble: 864 x 5
    ##    text                               page language url                    title
    ##    <chr>                             <int> <chr>    <chr>                  <chr>
    ##  1 ""                                    1 en       https://en.wikisource… Cand…
    ##  2 In the country of Westphalia, in…     1 en       https://en.wikisource… Cand…
    ##  3 "The Baron was one of the most p…     1 en       https://en.wikisource… Cand…
    ##  4 My Lady Baroness, who weighed th…     1 en       https://en.wikisource… Cand…
    ##  5 Master Pangloss taught the metap…     1 en       https://en.wikisource… Cand…
    ##  6 "\"It is demonstrable,\" said he…     1 en       https://en.wikisource… Cand…
    ##  7 Candide listened attentively and…     1 en       https://en.wikisource… Cand…
    ##  8 One day when Miss Cunegund went …     1 en       https://en.wikisource… Cand…
    ##  9 On her way back she happened to …     1 en       https://en.wikisource… Cand…
    ## 10 ""                                    1 en       https://en.wikisource… Cand…
    ## # … with 854 more rows
…
Download *Candide* in French, Spanish and Italian, with the help of
{purrr}.

``` r
library(purrr)

fr <- "https://fr.wikisource.org/wiki/Candide,_ou_l%E2%80%99Optimisme/Garnier_1877"
es <- "https://es.wikisource.org/wiki/C%C3%A1ndido,_o_el_optimismo"
it <- "https://it.wikisource.org/wiki/Candido"

purrr::map_df(c(fr, es, it), wikisource_book)
```

    ## # A tibble: 2,372 x 5
    ##    text                      page language url                      title       
    ##    <chr>                    <int> <chr>    <chr>                    <chr>       
    ##  1 ""                           1 fr       https://fr.wikisource.o… Candide, ou…
    ##  2 ""                           1 fr       https://fr.wikisource.o… Candide, ou…
    ##  3 ""                           1 fr       https://fr.wikisource.o… Candide, ou…
    ##  4 ""                           1 fr       https://fr.wikisource.o… Candide, ou…
    ##  5 CHAPITRE I. comment can…     1 fr       https://fr.wikisource.o… Candide, ou…
    ##  6 "Il y avait en Vestphal…     1 fr       https://fr.wikisource.o… Candide, ou…
    ##  7 Monsieur le baron était…     1 fr       https://fr.wikisource.o… Candide, ou…
    ##  8 Madame la baronne, qui …     1 fr       https://fr.wikisource.o… Candide, ou…
    ##  9 Pangloss enseignait la …     1 fr       https://fr.wikisource.o… Candide, ou…
    ## 10 « Il est démontré, disa…     1 fr       https://fr.wikisource.o… Candide, ou…
    ## # … with 2,362 more rows
…
