Introduction to wikisourcer
…
Download pages

The wikisource_book function sometimes doesn’t work. It happens when the main url path differs from the ones of the linked urls or when the function fail to identify correctly the linked urls. This issue can easily be fixed using the wikisource_page function.

The wikisource_page function has two arguments, i.e. the Wikisource url and an optional title for the page. For example, we can download Sonnet 18 of William Shakespeare.

wikisource_page(wikiurl = "https://en.wikisource.org/wiki/Shakespeare%27s_Sonnets/Sonnet_18", 
                page = "Sonnet 18")

## # A tibble: 36 x 4
##    text                   page    language url                             
##    <chr>                  <chr>   <chr>    <chr>                           
##  1 ""                     Sonnet… en       https://en.wikisource.org/wiki/…
##  2 ""                     Sonnet… en       https://en.wikisource.org/wiki/…
##  3 ""                     Sonnet… en       https://en.wikisource.org/wiki/…
##  4 XVIII.                 Sonnet… en       https://en.wikisource.org/wiki/…
##  5 ""                     Sonnet… en       https://en.wikisource.org/wiki/…
##  6 ""                     Sonnet… en       https://en.wikisource.org/wiki/…
##  7 ""                     Sonnet… en       https://en.wikisource.org/wiki/…
##  8 ""                     Sonnet… en       https://en.wikisource.org/wiki/…
##  9 Shall I compare thee … Sonnet… en       https://en.wikisource.org/wiki/…
## 10 Thou art more lovely … Sonnet… en       https://en.wikisource.org/wiki/…
## # … with 26 more rows

The wikisource_book function fails to download the 154 Sonnets from the main url “https://en.wikisource.org/wiki/Shakespeare%27s_Sonnets/”. We have to use wikisource_page to download them.

Let’s begin by creating a list of the 154 wikipages we want to download, using the R base function paste0.

urls <- paste0("https://en.wikisource.org/wiki/Shakespeare%27s_Sonnets/Sonnet_", 1:154)

Now we can download all the Sonnets using purrr.

sonnets <- purrr::map2_df(urls, paste0("Sonnet ", 1:154), wikisource_page)
sonnets

## # A tibble: 3,772 x 4
##    text                   page   language url                              
##    <chr>                  <chr>  <chr>    <chr>                            
##  1 ""                     Sonne… en       https://en.wikisource.org/wiki/S…
##  2 ""                     Sonne… en       https://en.wikisource.org/wiki/S…
##  3 ""                     Sonne… en       https://en.wikisource.org/wiki/S…
##  4 HEAD OF EROS (CUPID),… Sonne… en       https://en.wikisource.org/wiki/S…
##  5 ""                     Sonne… en       https://en.wikisource.org/wiki/S…
##  6 "SONNETS. "            Sonne… en       https://en.wikisource.org/wiki/S…
##  7 I.                     Sonne… en       https://en.wikisource.org/wiki/S…
##  8 ""                     Sonne… en       https://en.wikisource.org/wiki/S…
##  9 ""                     Sonne… en       https://en.wikisource.org/wiki/S…
## 10 ""                     Sonne… en       https://en.wikisource.org/wiki/S…
## # … with 3,762 more rows
…
