Introduction to wikisourcer • wikisourcer
…
The digital library Wikisource, a sister projet of Wikipedia, hosts books in the public domain in almost all languages. More than 100’000 books are accessible in English, Spanish, French, German, Russian or Chinese.

The wikisourcer R package helps you download any book or page from Wikisource. The text is downloaded in a tidy dataframe, so it can be analyzed within the tidyverse ecosystem as explained for example in the book Text mining with R.

Download books

To download Voltaire’s philosophical novel Candide, simply paste the url of the table of content into the wikisource_book function. Note that the book is already classified by chapter with the page variable.

library(wikisourcer)

wikisource_book(url = "https://en.wikisource.org/wiki/Candide")

## # A tibble: 864 x 5
##    text                               page language url                    title
##    <chr>                             <int> <chr>    <chr>                  <chr>
##  1 ""                                    1 en       https://en.wikisource… Cand…
##  2 "In the country of Westphalia, i…     1 en       https://en.wikisource… Cand…
##  3 "The Baron was one of the most p…     1 en       https://en.wikisource… Cand…
##  4 "My Lady Baroness, who weighed t…     1 en       https://en.wikisource… Cand…
##  5 "Master Pangloss taught the meta…     1 en       https://en.wikisource… Cand…
##  6 "\"It is demonstrable,\" said he…     1 en       https://en.wikisource… Cand…
##  7 "Candide listened attentively an…     1 en       https://en.wikisource… Cand…
##  8 "One day when Miss Cunegund went…     1 en       https://en.wikisource… Cand…
##  9 "On her way back she happened to…     1 en       https://en.wikisource… Cand…
## 10 ""                                    1 en       https://en.wikisource… Cand…
## # … with 854 more rows
…
The wikisource_book function fails to download the 154 Sonnets from the main url “https://en.wikisource.org/wiki/Shakespeare's_Sonnets”. We have to use wikisource_page to download them.

Let’s begin by creating a list of the 154 wikipages we want to download, using the R base function paste0.

urls <- paste0("https://en.wikisource.org/wiki/Shakespeare's_Sonnets_(1883)/Sonnet_", 1:154)

Now we can download all the Sonnets with purrr.

sonnets <- purrr::map2_df(urls, paste0("Sonnet ", 1:154), wikisource_page)
sonnets

## # A tibble: 4,751 x 4
##    text                          page   language url                            
##    <chr>                         <chr>  <chr>    <chr>                          
##  1 "For other versions of this … Sonne… en       https://en.wikisource.org/wiki…
##  2 ""                            Sonne… en       https://en.wikisource.org/wiki…
##  3 ""                            Sonne… en       https://en.wikisource.org/wiki…
##  4 "​"                            Sonne… en       https://en.wikisource.org/wiki…
##  5 ""                            Sonne… en       https://en.wikisource.org/wiki…
##  6 "HEAD OF EROS (CUPID), FROM … Sonne… en       https://en.wikisource.org/wiki…
##  7 ""                            Sonne… en       https://en.wikisource.org/wiki…
##  8 "SONNETS. "                   Sonne… en       https://en.wikisource.org/wiki…
##  9 "I."                          Sonne… en       https://en.wikisource.org/wiki…
## 10 ""                            Sonne… en       https://en.wikisource.org/wiki…
## # … with 4,741 more rows
…
